^D:\GC2A19\新しいフォルダー\CALCLATION.CPP|D:\GC2A19\新しいフォルダー\MAIN.CPP|D:\GC2A19\課題７\課題\KADAI6\CIRCLECLASS.CPP|D:\GC2A19\課題７\課題\KADAI6\MAI3.CPP|D:\GC2A19\課題７\課題\KADAI6\MAIN.CPP|D:\GC2A19\課題７\課題\KADAI6\MAIN2.CPP|D:\GC2A19\課題７\課題\KADAI6\MAIN4.CPP|D:\GC2A19\課題７\課題\KADAI6\MAIN7.CPP|D:\GC2A19\課題７\課題\KADAI6\MAIN8.CPP|D:\GC2A19\課題７\課題\KADAI6\SAMPLE.CPP|D:\GC2A19\課題７\課題\KADAI6\SAMPLE4.CPP|D:\GC2A19\課題７\課題\KADAI6\STATUS.CPP|D:\GC2A19\課題７\課題\KADAI6\STATUS8.CPP|D:\GC2A19\課題７\課題\KADAI6\TRIANGLECLASS.CPP.CPP
D:\GC2A19\課題７\課題\KADAI6\X64\DEBUG\VC142.PDB
D:\GC2A19\課題７\課題\KADAI6\X64\DEBUG\VC142.IDB
D:\GC2A19\課題７\課題\KADAI6\X64\DEBUG\STATUS.OBJ
D:\GC2A19\課題７\課題\KADAI6\X64\DEBUG\MAIN7.OBJ
D:\GC2A19\課題７\課題\KADAI6\X64\DEBUG\MAIN4.OBJ
D:\GC2A19\課題７\課題\KADAI6\X64\DEBUG\SAMPLE4.OBJ
D:\GC2A19\課題７\課題\KADAI6\X64\DEBUG\MAI3.OBJ
D:\GC2A19\課題７\課題\KADAI6\X64\DEBUG\CIRCLECLASS.OBJ
D:\GC2A19\課題７\課題\KADAI6\X64\DEBUG\MAIN2.OBJ
D:\GC2A19\課題７\課題\KADAI6\X64\DEBUG\TRIANGLECLASS.CPP.OBJ
D:\GC2A19\課題７\課題\KADAI6\X64\DEBUG\MAIN.OBJ
D:\GC2A19\課題７\課題\KADAI6\X64\DEBUG\SAMPLE.OBJ
D:\GC2A19\課題７\課題\KADAI6\X64\DEBUG\CALCLATION.OBJ
^D:\GC2A19\新しいフォルダー\CALCLATION.CPP
D:\GC2A19\課題７\課題\KADAI6\X64\DEBUG\CALCLATION.OBJ
^D:\GC2A19\新しいフォルダー\MAIN.CPP
D:\GC2A19\課題７\課題\KADAI6\X64\DEBUG\MAIN.OBJ
^D:\GC2A19\課題７\課題\KADAI6\SAMPLE.CPP
D:\GC2A19\課題７\課題\KADAI6\X64\DEBUG\SAMPLE.OBJ
^D:\GC2A19\課題７\課題\KADAI6\MAIN.CPP
D:\GC2A19\課題７\課題\KADAI6\X64\DEBUG\MAIN.OBJ
^D:\GC2A19\課題７\課題\KADAI6\TRIANGLECLASS.CPP.CPP
D:\GC2A19\課題７\課題\KADAI6\X64\DEBUG\TRIANGLECLASS.CPP.OBJ
^D:\GC2A19\課題７\課題\KADAI6\MAIN2.CPP
D:\GC2A19\課題７\課題\KADAI6\X64\DEBUG\MAIN2.OBJ
^D:\GC2A19\課題７\課題\KADAI6\CIRCLECLASS.CPP
D:\GC2A19\課題７\課題\KADAI6\X64\DEBUG\CIRCLECLASS.OBJ
^D:\GC2A19\課題７\課題\KADAI6\MAI3.CPP
D:\GC2A19\課題７\課題\KADAI6\X64\DEBUG\MAI3.OBJ
^D:\GC2A19\課題７\課題\KADAI6\SAMPLE4.CPP
D:\GC2A19\課題７\課題\KADAI6\X64\DEBUG\SAMPLE4.OBJ
^D:\GC2A19\課題７\課題\KADAI6\MAIN4.CPP
D:\GC2A19\課題７\課題\KADAI6\X64\DEBUG\MAIN4.OBJ
^D:\GC2A19\課題７\課題\KADAI6\MAIN7.CPP
D:\GC2A19\課題７\課題\KADAI6\X64\DEBUG\MAIN7.OBJ
^D:\GC2A19\課題７\課題\KADAI6\STATUS.CPP
D:\GC2A19\課題７\課題\KADAI6\X64\DEBUG\STATUS.OBJ
