^D:\GC2A19\課題９\課題９\課題９\DEBUG\MAIN.OBJ|D:\GC2A19\課題９\課題９\課題９\DEBUG\SAMPLE.OBJ
/OUT:"D:\GC2A19\課題９\課題９\DEBUG\課題９.EXE" /INCREMENTAL /NOLOGO KERNEL32.LIB USER32.LIB GDI32.LIB WINSPOOL.LIB COMDLG32.LIB ADVAPI32.LIB SHELL32.LIB OLE32.LIB OLEAUT32.LIB UUID.LIB ODBC32.LIB ODBCCP32.LIB /MANIFEST /MANIFESTUAC:"level='asInvoker' uiAccess='false'" /manifest:embed /DEBUG:FASTLINK /PDB:"D:\GC2A19\課題９\課題９\DEBUG\課題９.PDB" /SUBSYSTEM:CONSOLE /TLBID:1 /DYNAMICBASE /NXCOMPAT /IMPLIB:"D:\GC2A19\課題９\課題９\DEBUG\課題９.LIB" /MACHINE:X86 DEBUG\SAMPLE.OBJ
DEBUG\MAIN.OBJ
